^C:\USERS\100655604\DOWNLOADS\MEGASYNC\DOCUMENTS\VISUAL STUDIO 2017\PROJECTS\GDW ASSIGNMENTS\ASSIGNMENT 3\DEBUG\MAIN.OBJ
C:\USERS\100655604\DOWNLOADS\MEGASYNC\DOCUMENTS\VISUAL STUDIO 2017\PROJECTS\GDW ASSIGNMENTS\DEBUG\ASSIGNMENT 3.EXE
C:\USERS\100655604\DOWNLOADS\MEGASYNC\DOCUMENTS\VISUAL STUDIO 2017\PROJECTS\GDW ASSIGNMENTS\DEBUG\ASSIGNMENT 3.ILK
C:\USERS\100655604\DOWNLOADS\MEGASYNC\DOCUMENTS\VISUAL STUDIO 2017\PROJECTS\GDW ASSIGNMENTS\DEBUG\ASSIGNMENT 3.PDB
